{"failedCount":1,"prefixedPath":"src\/test\/resources\/features\/swapi-get.feature","packageQualifiedName":"src.test.resources.features.swapi-get","loopIndex":-1,"relativePath":"src\/test\/resources\/features\/swapi-get.feature","scenarioResults":[{"sectionIndex":3,"stepResults":[{"result":{"nanos":790411500,"millis":790.4115,"status":"passed"},"step":{"background":true,"line":4,"prefix":"*","index":0,"text":"configure ssl = true"}},{"result":{"nanos":2977700,"millis":2.9777,"status":"passed"},"step":{"background":true,"line":5,"prefix":"*","index":1,"text":"url \"https:\/\/swapi.dev\/api\""}},{"result":{"nanos":466000,"millis":0.466,"status":"passed"},"step":{"line":55,"prefix":"Given","index":0,"text":"path '\/people\/'"}},{"result":{"nanos":737200,"millis":0.7372,"status":"passed"},"step":{"line":56,"prefix":"*","index":1,"text":"param myparam = \"page=999\""}},{"result":{"nanos":4500694200,"millis":4500.6942,"status":"passed"},"step":{"line":57,"prefix":"When","index":2,"text":"method get"},"stepLog":"11:30:43.998 request:\n1 > GET https:\/\/swapi.dev\/api\/people?myparam=page%3D999\n1 > Host: swapi.dev\n1 > Connection: Keep-Alive\n1 > User-Agent: Apache-HttpClient\/4.5.13 (Java\/11.0.12)\n1 > Accept-Encoding: gzip,deflate\n\n\n11:30:48.324 response time in milliseconds: 4321\n1 < 200\n1 < Server: nginx\/1.16.1\n1 < Date: Wed, 19 Jul 2023 16:30:46 GMT\n1 < Content-Type: application\/json\n1 < Connection: keep-alive\n1 < Vary: Accept, Cookie\n1 < X-Frame-Options: SAMEORIGIN\n1 < ETag: \"293e3e1f68aa9d84137beb5a3c666aae\"\n1 < Allow: GET, HEAD, OPTIONS\n1 < Strict-Transport-Security: max-age=15768000\n1 < Content-Length: 5635\n{\"count\":82,\"next\":\"https:\/\/swapi.dev\/api\/people\/?page=2&myparam=page%3D999\",\"previous\":null,\"results\":[{\"name\":\"Luke Skywalker\",\"height\":\"172\",\"mass\":\"77\",\"hair_color\":\"blond\",\"skin_color\":\"fair\",\"eye_color\":\"blue\",\"birth_year\":\"19BBY\",\"gender\":\"male\",\"homeworld\":\"https:\/\/swapi.dev\/api\/planets\/1\/\",\"films\":[\"https:\/\/swapi.dev\/api\/films\/1\/\",\"https:\/\/swapi.dev\/api\/films\/2\/\",\"https:\/\/swapi.dev\/api\/films\/3\/\",\"https:\/\/swapi.dev\/api\/films\/6\/\"],\"species\":[],\"vehicles\":[\"https:\/\/swapi.dev\/api\/vehicles\/14\/\",\"https:\/\/swapi.dev\/api\/vehicles\/30\/\"],\"starships\":[\"https:\/\/swapi.dev\/api\/starships\/12\/\",\"https:\/\/swapi.dev\/api\/starships\/22\/\"],\"created\":\"2014-12-09T13:50:51.644000Z\",\"edited\":\"2014-12-20T21:17:56.891000Z\",\"url\":\"https:\/\/swapi.dev\/api\/people\/1\/\"},{\"name\":\"C-3PO\",\"height\":\"167\",\"mass\":\"75\",\"hair_color\":\"n\/a\",\"skin_color\":\"gold\",\"eye_color\":\"yellow\",\"birth_year\":\"112BBY\",\"gender\":\"n\/a\",\"homeworld\":\"https:\/\/swapi.dev\/api\/planets\/1\/\",\"films\":[\"https:\/\/swapi.dev\/api\/films\/1\/\",\"https:\/\/swapi.dev\/api\/films\/2\/\",\"https:\/\/swapi.dev\/api\/films\/3\/\",\"https:\/\/swapi.dev\/api\/films\/4\/\",\"https:\/\/swapi.dev\/api\/films\/5\/\",\"https:\/\/swapi.dev\/api\/films\/6\/\"],\"species\":[\"https:\/\/swapi.dev\/api\/species\/2\/\"],\"vehicles\":[],\"starships\":[],\"created\":\"2014-12-10T15:10:51.357000Z\",\"edited\":\"2014-12-20T21:17:50.309000Z\",\"url\":\"https:\/\/swapi.dev\/api\/people\/2\/\"},{\"name\":\"R2-D2\",\"height\":\"96\",\"mass\":\"32\",\"hair_color\":\"n\/a\",\"skin_color\":\"white, blue\",\"eye_color\":\"red\",\"birth_year\":\"33BBY\",\"gender\":\"n\/a\",\"homeworld\":\"https:\/\/swapi.dev\/api\/planets\/8\/\",\"films\":[\"https:\/\/swapi.dev\/api\/films\/1\/\",\"https:\/\/swapi.dev\/api\/films\/2\/\",\"https:\/\/swapi.dev\/api\/films\/3\/\",\"https:\/\/swapi.dev\/api\/films\/4\/\",\"https:\/\/swapi.dev\/api\/films\/5\/\",\"https:\/\/swapi.dev\/api\/films\/6\/\"],\"species\":[\"https:\/\/swapi.dev\/api\/species\/2\/\"],\"vehicles\":[],\"starships\":[],\"created\":\"2014-12-10T15:11:50.376000Z\",\"edited\":\"2014-12-20T21:17:50.311000Z\",\"url\":\"https:\/\/swapi.dev\/api\/people\/3\/\"},{\"name\":\"Darth Vader\",\"height\":\"202\",\"mass\":\"136\",\"hair_color\":\"none\",\"skin_color\":\"white\",\"eye_color\":\"yellow\",\"birth_year\":\"41.9BBY\",\"gender\":\"male\",\"homeworld\":\"https:\/\/swapi.dev\/api\/planets\/1\/\",\"films\":[\"https:\/\/swapi.dev\/api\/films\/1\/\",\"https:\/\/swapi.dev\/api\/films\/2\/\",\"https:\/\/swapi.dev\/api\/films\/3\/\",\"https:\/\/swapi.dev\/api\/films\/6\/\"],\"species\":[],\"vehicles\":[],\"starships\":[\"https:\/\/swapi.dev\/api\/starships\/13\/\"],\"created\":\"2014-12-10T15:18:20.704000Z\",\"edited\":\"2014-12-20T21:17:50.313000Z\",\"url\":\"https:\/\/swapi.dev\/api\/people\/4\/\"},{\"name\":\"Leia Organa\",\"height\":\"150\",\"mass\":\"49\",\"hair_color\":\"brown\",\"skin_color\":\"light\",\"eye_color\":\"brown\",\"birth_year\":\"19BBY\",\"gender\":\"female\",\"homeworld\":\"https:\/\/swapi.dev\/api\/planets\/2\/\",\"films\":[\"https:\/\/swapi.dev\/api\/films\/1\/\",\"https:\/\/swapi.dev\/api\/films\/2\/\",\"https:\/\/swapi.dev\/api\/films\/3\/\",\"https:\/\/swapi.dev\/api\/films\/6\/\"],\"species\":[],\"vehicles\":[\"https:\/\/swapi.dev\/api\/vehicles\/30\/\"],\"starships\":[],\"created\":\"2014-12-10T15:20:09.791000Z\",\"edited\":\"2014-12-20T21:17:50.315000Z\",\"url\":\"https:\/\/swapi.dev\/api\/people\/5\/\"},{\"name\":\"Owen Lars\",\"height\":\"178\",\"mass\":\"120\",\"hair_color\":\"brown, grey\",\"skin_color\":\"light\",\"eye_color\":\"blue\",\"birth_year\":\"52BBY\",\"gender\":\"male\",\"homeworld\":\"https:\/\/swapi.dev\/api\/planets\/1\/\",\"films\":[\"https:\/\/swapi.dev\/api\/films\/1\/\",\"https:\/\/swapi.dev\/api\/films\/5\/\",\"https:\/\/swapi.dev\/api\/films\/6\/\"],\"species\":[],\"vehicles\":[],\"starships\":[],\"created\":\"2014-12-10T15:52:14.024000Z\",\"edited\":\"2014-12-20T21:17:50.317000Z\",\"url\":\"https:\/\/swapi.dev\/api\/people\/6\/\"},{\"name\":\"Beru Whitesun lars\",\"height\":\"165\",\"mass\":\"75\",\"hair_color\":\"brown\",\"skin_color\":\"light\",\"eye_color\":\"blue\",\"birth_year\":\"47BBY\",\"gender\":\"female\",\"homeworld\":\"https:\/\/swapi.dev\/api\/planets\/1\/\",\"films\":[\"https:\/\/swapi.dev\/api\/films\/1\/\",\"https:\/\/swapi.dev\/api\/films\/5\/\",\"https:\/\/swapi.dev\/api\/films\/6\/\"],\"species\":[],\"vehicles\":[],\"starships\":[],\"created\":\"2014-12-10T15:53:41.121000Z\",\"edited\":\"2014-12-20T21:17:50.319000Z\",\"url\":\"https:\/\/swapi.dev\/api\/people\/7\/\"},{\"name\":\"R5-D4\",\"height\":\"97\",\"mass\":\"32\",\"hair_color\":\"n\/a\",\"skin_color\":\"white, red\",\"eye_color\":\"red\",\"birth_year\":\"unknown\",\"gender\":\"n\/a\",\"homeworld\":\"https:\/\/swapi.dev\/api\/planets\/1\/\",\"films\":[\"https:\/\/swapi.dev\/api\/films\/1\/\"],\"species\":[\"https:\/\/swapi.dev\/api\/species\/2\/\"],\"vehicles\":[],\"starships\":[],\"created\":\"2014-12-10T15:57:50.959000Z\",\"edited\":\"2014-12-20T21:17:50.321000Z\",\"url\":\"https:\/\/swapi.dev\/api\/people\/8\/\"},{\"name\":\"Biggs Darklighter\",\"height\":\"183\",\"mass\":\"84\",\"hair_color\":\"black\",\"skin_color\":\"light\",\"eye_color\":\"brown\",\"birth_year\":\"24BBY\",\"gender\":\"male\",\"homeworld\":\"https:\/\/swapi.dev\/api\/planets\/1\/\",\"films\":[\"https:\/\/swapi.dev\/api\/films\/1\/\"],\"species\":[],\"vehicles\":[],\"starships\":[\"https:\/\/swapi.dev\/api\/starships\/12\/\"],\"created\":\"2014-12-10T15:59:50.509000Z\",\"edited\":\"2014-12-20T21:17:50.323000Z\",\"url\":\"https:\/\/swapi.dev\/api\/people\/9\/\"},{\"name\":\"Obi-Wan Kenobi\",\"height\":\"182\",\"mass\":\"77\",\"hair_color\":\"auburn, white\",\"skin_color\":\"fair\",\"eye_color\":\"blue-gray\",\"birth_year\":\"57BBY\",\"gender\":\"male\",\"homeworld\":\"https:\/\/swapi.dev\/api\/planets\/20\/\",\"films\":[\"https:\/\/swapi.dev\/api\/films\/1\/\",\"https:\/\/swapi.dev\/api\/films\/2\/\",\"https:\/\/swapi.dev\/api\/films\/3\/\",\"https:\/\/swapi.dev\/api\/films\/4\/\",\"https:\/\/swapi.dev\/api\/films\/5\/\",\"https:\/\/swapi.dev\/api\/films\/6\/\"],\"species\":[],\"vehicles\":[\"https:\/\/swapi.dev\/api\/vehicles\/38\/\"],\"starships\":[\"https:\/\/swapi.dev\/api\/starships\/48\/\",\"https:\/\/swapi.dev\/api\/starships\/59\/\",\"https:\/\/swapi.dev\/api\/starships\/64\/\",\"https:\/\/swapi.dev\/api\/starships\/65\/\",\"https:\/\/swapi.dev\/api\/starships\/74\/\"],\"created\":\"2014-12-10T16:16:29.192000Z\",\"edited\":\"2014-12-20T21:17:50.325000Z\",\"url\":\"https:\/\/swapi.dev\/api\/people\/10\/\"}]}\n\n"},{"result":{"nanos":68300,"errorMessage":"status code was: 200, expected: 404, response time in milliseconds: 4321, url: https:\/\/swapi.dev\/api\/people?myparam=page%3D999, response: \n{\"count\":82,\"next\":\"https:\/\/swapi.dev\/api\/people\/?page=2&myparam=page%3D999\",\"previous\":null,\"results\":[{\"name\":\"Luke Skywalker\",\"height\":\"172\",\"mass\":\"77\",\"hair_color\":\"blond\",\"skin_color\":\"fair\",\"eye_color\":\"blue\",\"birth_year\":\"19BBY\",\"gender\":\"male\",\"homeworld\":\"https:\/\/swapi.dev\/api\/planets\/1\/\",\"films\":[\"https:\/\/swapi.dev\/api\/films\/1\/\",\"https:\/\/swapi.dev\/api\/films\/2\/\",\"https:\/\/swapi.dev\/api\/films\/3\/\",\"https:\/\/swapi.dev\/api\/films\/6\/\"],\"species\":[],\"vehicles\":[\"https:\/\/swapi.dev\/api\/vehicles\/14\/\",\"https:\/\/swapi.dev\/api\/vehicles\/30\/\"],\"starships\":[\"https:\/\/swapi.dev\/api\/starships\/12\/\",\"https:\/\/swapi.dev\/api\/starships\/22\/\"],\"created\":\"2014-12-09T13:50:51.644000Z\",\"edited\":\"2014-12-20T21:17:56.891000Z\",\"url\":\"https:\/\/swapi.dev\/api\/people\/1\/\"},{\"name\":\"C-3PO\",\"height\":\"167\",\"mass\":\"75\",\"hair_color\":\"n\/a\",\"skin_color\":\"gold\",\"eye_color\":\"yellow\",\"birth_year\":\"112BBY\",\"gender\":\"n\/a\",\"homeworld\":\"https:\/\/swapi.dev\/api\/planets\/1\/\",\"films\":[\"https:\/\/swapi.dev\/api\/films\/1\/\",\"https:\/\/swapi.dev\/api\/films\/2\/\",\"https:\/\/swapi.dev\/api\/films\/3\/\",\"https:\/\/swapi.dev\/api\/films\/4\/\",\"https:\/\/swapi.dev\/api\/films\/5\/\",\"https:\/\/swapi.dev\/api\/films\/6\/\"],\"species\":[\"https:\/\/swapi.dev\/api\/species\/2\/\"],\"vehicles\":[],\"starships\":[],\"created\":\"2014-12-10T15:10:51.357000Z\",\"edited\":\"2014-12-20T21:17:50.309000Z\",\"url\":\"https:\/\/swapi.dev\/api\/people\/2\/\"},{\"name\":\"R2-D2\",\"height\":\"96\",\"mass\":\"32\",\"hair_color\":\"n\/a\",\"skin_color\":\"white, blue\",\"eye_color\":\"red\",\"birth_year\":\"33BBY\",\"gender\":\"n\/a\",\"homeworld\":\"https:\/\/swapi.dev\/api\/planets\/8\/\",\"films\":[\"https:\/\/swapi.dev\/api\/films\/1\/\",\"https:\/\/swapi.dev\/api\/films\/2\/\",\"https:\/\/swapi.dev\/api\/films\/3\/\",\"https:\/\/swapi.dev\/api\/films\/4\/\",\"https:\/\/swapi.dev\/api\/films\/5\/\",\"https:\/\/swapi.dev\/api\/films\/6\/\"],\"species\":[\"https:\/\/swapi.dev\/api\/species\/2\/\"],\"vehicles\":[],\"starships\":[],\"created\":\"2014-12-10T15:11:50.376000Z\",\"edited\":\"2014-12-20T21:17:50.311000Z\",\"url\":\"https:\/\/swapi.dev\/api\/people\/3\/\"},{\"name\":\"Darth Vader\",\"height\":\"202\",\"mass\":\"136\",\"hair_color\":\"none\",\"skin_color\":\"white\",\"eye_color\":\"yellow\",\"birth_year\":\"41.9BBY\",\"gender\":\"male\",\"homeworld\":\"https:\/\/swapi.dev\/api\/planets\/1\/\",\"films\":[\"https:\/\/swapi.dev\/api\/films\/1\/\",\"https:\/\/swapi.dev\/api\/films\/2\/\",\"https:\/\/swapi.dev\/api\/films\/3\/\",\"https:\/\/swapi.dev\/api\/films\/6\/\"],\"species\":[],\"vehicles\":[],\"starships\":[\"https:\/\/swapi.dev\/api\/starships\/13\/\"],\"created\":\"2014-12-10T15:18:20.704000Z\",\"edited\":\"2014-12-20T21:17:50.313000Z\",\"url\":\"https:\/\/swapi.dev\/api\/people\/4\/\"},{\"name\":\"Leia Organa\",\"height\":\"150\",\"mass\":\"49\",\"hair_color\":\"brown\",\"skin_color\":\"light\",\"eye_color\":\"brown\",\"birth_year\":\"19BBY\",\"gender\":\"female\",\"homeworld\":\"https:\/\/swapi.dev\/api\/planets\/2\/\",\"films\":[\"https:\/\/swapi.dev\/api\/films\/1\/\",\"https:\/\/swapi.dev\/api\/films\/2\/\",\"https:\/\/swapi.dev\/api\/films\/3\/\",\"https:\/\/swapi.dev\/api\/films\/6\/\"],\"species\":[],\"vehicles\":[\"https:\/\/swapi.dev\/api\/vehicles\/30\/\"],\"starships\":[],\"created\":\"2014-12-10T15:20:09.791000Z\",\"edited\":\"2014-12-20T21:17:50.315000Z\",\"url\":\"https:\/\/swapi.dev\/api\/people\/5\/\"},{\"name\":\"Owen Lars\",\"height\":\"178\",\"mass\":\"120\",\"hair_color\":\"brown, grey\",\"skin_color\":\"light\",\"eye_color\":\"blue\",\"birth_year\":\"52BBY\",\"gender\":\"male\",\"homeworld\":\"https:\/\/swapi.dev\/api\/planets\/1\/\",\"films\":[\"https:\/\/swapi.dev\/api\/films\/1\/\",\"https:\/\/swapi.dev\/api\/films\/5\/\",\"https:\/\/swapi.dev\/api\/films\/6\/\"],\"species\":[],\"vehicles\":[],\"starships\":[],\"created\":\"2014-12-10T15:52:14.024000Z\",\"edited\":\"2014-12-20T21:17:50.317000Z\",\"url\":\"https:\/\/swapi.dev\/api\/people\/6\/\"},{\"name\":\"Beru Whitesun lars\",\"height\":\"165\",\"mass\":\"75\",\"hair_color\":\"brown\",\"skin_color\":\"light\",\"eye_color\":\"blue\",\"birth_year\":\"47BBY\",\"gender\":\"female\",\"homeworld\":\"https:\/\/swapi.dev\/api\/planets\/1\/\",\"films\":[\"https:\/\/swapi.dev\/api\/films\/1\/\",\"https:\/\/swapi.dev\/api\/films\/5\/\",\"https:\/\/swapi.dev\/api\/films\/6\/\"],\"species\":[],\"vehicles\":[],\"starships\":[],\"created\":\"2014-12-10T15:53:41.121000Z\",\"edited\":\"2014-12-20T21:17:50.319000Z\",\"url\":\"https:\/\/swapi.dev\/api\/people\/7\/\"},{\"name\":\"R5-D4\",\"height\":\"97\",\"mass\":\"32\",\"hair_color\":\"n\/a\",\"skin_color\":\"white, red\",\"eye_color\":\"red\",\"birth_year\":\"unknown\",\"gender\":\"n\/a\",\"homeworld\":\"https:\/\/swapi.dev\/api\/planets\/1\/\",\"films\":[\"https:\/\/swapi.dev\/api\/films\/1\/\"],\"species\":[\"https:\/\/swapi.dev\/api\/species\/2\/\"],\"vehicles\":[],\"starships\":[],\"created\":\"2014-12-10T15:57:50.959000Z\",\"edited\":\"2014-12-20T21:17:50.321000Z\",\"url\":\"https:\/\/swapi.dev\/api\/people\/8\/\"},{\"name\":\"Biggs Darklighter\",\"height\":\"183\",\"mass\":\"84\",\"hair_color\":\"black\",\"skin_color\":\"light\",\"eye_color\":\"brown\",\"birth_year\":\"24BBY\",\"gender\":\"male\",\"homeworld\":\"https:\/\/swapi.dev\/api\/planets\/1\/\",\"films\":[\"https:\/\/swapi.dev\/api\/films\/1\/\"],\"species\":[],\"vehicles\":[],\"starships\":[\"https:\/\/swapi.dev\/api\/starships\/12\/\"],\"created\":\"2014-12-10T15:59:50.509000Z\",\"edited\":\"2014-12-20T21:17:50.323000Z\",\"url\":\"https:\/\/swapi.dev\/api\/people\/9\/\"},{\"name\":\"Obi-Wan Kenobi\",\"height\":\"182\",\"mass\":\"77\",\"hair_color\":\"auburn, white\",\"skin_color\":\"fair\",\"eye_color\":\"blue-gray\",\"birth_year\":\"57BBY\",\"gender\":\"male\",\"homeworld\":\"https:\/\/swapi.dev\/api\/planets\/20\/\",\"films\":[\"https:\/\/swapi.dev\/api\/films\/1\/\",\"https:\/\/swapi.dev\/api\/films\/2\/\",\"https:\/\/swapi.dev\/api\/films\/3\/\",\"https:\/\/swapi.dev\/api\/films\/4\/\",\"https:\/\/swapi.dev\/api\/films\/5\/\",\"https:\/\/swapi.dev\/api\/films\/6\/\"],\"species\":[],\"vehicles\":[\"https:\/\/swapi.dev\/api\/vehicles\/38\/\"],\"starships\":[\"https:\/\/swapi.dev\/api\/starships\/48\/\",\"https:\/\/swapi.dev\/api\/starships\/59\/\",\"https:\/\/swapi.dev\/api\/starships\/64\/\",\"https:\/\/swapi.dev\/api\/starships\/65\/\",\"https:\/\/swapi.dev\/api\/starships\/74\/\"],\"created\":\"2014-12-10T16:16:29.192000Z\",\"edited\":\"2014-12-20T21:17:50.325000Z\",\"url\":\"https:\/\/swapi.dev\/api\/people\/10\/\"}]}\nsrc\/test\/resources\/features\/swapi-get.feature:58","millis":0.0683,"status":"failed"},"step":{"line":58,"prefix":"Then","index":3,"text":"status 404"},"stepLog":"11:30:48.350 src\/test\/resources\/features\/swapi-get.feature:58\nThen status 404\nstatus code was: 200, expected: 404, response time in milliseconds: 4321, url: https:\/\/swapi.dev\/api\/people?myparam=page%3D999, response: \n{\"count\":82,\"next\":\"https:\/\/swapi.dev\/api\/people\/?page=2&myparam=page%3D999\",\"previous\":null,\"results\":[{\"name\":\"Luke Skywalker\",\"height\":\"172\",\"mass\":\"77\",\"hair_color\":\"blond\",\"skin_color\":\"fair\",\"eye_color\":\"blue\",\"birth_year\":\"19BBY\",\"gender\":\"male\",\"homeworld\":\"https:\/\/swapi.dev\/api\/planets\/1\/\",\"films\":[\"https:\/\/swapi.dev\/api\/films\/1\/\",\"https:\/\/swapi.dev\/api\/films\/2\/\",\"https:\/\/swapi.dev\/api\/films\/3\/\",\"https:\/\/swapi.dev\/api\/films\/6\/\"],\"species\":[],\"vehicles\":[\"https:\/\/swapi.dev\/api\/vehicles\/14\/\",\"https:\/\/swapi.dev\/api\/vehicles\/30\/\"],\"starships\":[\"https:\/\/swapi.dev\/api\/starships\/12\/\",\"https:\/\/swapi.dev\/api\/starships\/22\/\"],\"created\":\"2014-12-09T13:50:51.644000Z\",\"edited\":\"2014-12-20T21:17:56.891000Z\",\"url\":\"https:\/\/swapi.dev\/api\/people\/1\/\"},{\"name\":\"C-3PO\",\"height\":\"167\",\"mass\":\"75\",\"hair_color\":\"n\/a\",\"skin_color\":\"gold\",\"eye_color\":\"yellow\",\"birth_year\":\"112BBY\",\"gender\":\"n\/a\",\"homeworld\":\"https:\/\/swapi.dev\/api\/planets\/1\/\",\"films\":[\"https:\/\/swapi.dev\/api\/films\/1\/\",\"https:\/\/swapi.dev\/api\/films\/2\/\",\"https:\/\/swapi.dev\/api\/films\/3\/\",\"https:\/\/swapi.dev\/api\/films\/4\/\",\"https:\/\/swapi.dev\/api\/films\/5\/\",\"https:\/\/swapi.dev\/api\/films\/6\/\"],\"species\":[\"https:\/\/swapi.dev\/api\/species\/2\/\"],\"vehicles\":[],\"starships\":[],\"created\":\"2014-12-10T15:10:51.357000Z\",\"edited\":\"2014-12-20T21:17:50.309000Z\",\"url\":\"https:\/\/swapi.dev\/api\/people\/2\/\"},{\"name\":\"R2-D2\",\"height\":\"96\",\"mass\":\"32\",\"hair_color\":\"n\/a\",\"skin_color\":\"white, blue\",\"eye_color\":\"red\",\"birth_year\":\"33BBY\",\"gender\":\"n\/a\",\"homeworld\":\"https:\/\/swapi.dev\/api\/planets\/8\/\",\"films\":[\"https:\/\/swapi.dev\/api\/films\/1\/\",\"https:\/\/swapi.dev\/api\/films\/2\/\",\"https:\/\/swapi.dev\/api\/films\/3\/\",\"https:\/\/swapi.dev\/api\/films\/4\/\",\"https:\/\/swapi.dev\/api\/films\/5\/\",\"https:\/\/swapi.dev\/api\/films\/6\/\"],\"species\":[\"https:\/\/swapi.dev\/api\/species\/2\/\"],\"vehicles\":[],\"starships\":[],\"created\":\"2014-12-10T15:11:50.376000Z\",\"edited\":\"2014-12-20T21:17:50.311000Z\",\"url\":\"https:\/\/swapi.dev\/api\/people\/3\/\"},{\"name\":\"Darth Vader\",\"height\":\"202\",\"mass\":\"136\",\"hair_color\":\"none\",\"skin_color\":\"white\",\"eye_color\":\"yellow\",\"birth_year\":\"41.9BBY\",\"gender\":\"male\",\"homeworld\":\"https:\/\/swapi.dev\/api\/planets\/1\/\",\"films\":[\"https:\/\/swapi.dev\/api\/films\/1\/\",\"https:\/\/swapi.dev\/api\/films\/2\/\",\"https:\/\/swapi.dev\/api\/films\/3\/\",\"https:\/\/swapi.dev\/api\/films\/6\/\"],\"species\":[],\"vehicles\":[],\"starships\":[\"https:\/\/swapi.dev\/api\/starships\/13\/\"],\"created\":\"2014-12-10T15:18:20.704000Z\",\"edited\":\"2014-12-20T21:17:50.313000Z\",\"url\":\"https:\/\/swapi.dev\/api\/people\/4\/\"},{\"name\":\"Leia Organa\",\"height\":\"150\",\"mass\":\"49\",\"hair_color\":\"brown\",\"skin_color\":\"light\",\"eye_color\":\"brown\",\"birth_year\":\"19BBY\",\"gender\":\"female\",\"homeworld\":\"https:\/\/swapi.dev\/api\/planets\/2\/\",\"films\":[\"https:\/\/swapi.dev\/api\/films\/1\/\",\"https:\/\/swapi.dev\/api\/films\/2\/\",\"https:\/\/swapi.dev\/api\/films\/3\/\",\"https:\/\/swapi.dev\/api\/films\/6\/\"],\"species\":[],\"vehicles\":[\"https:\/\/swapi.dev\/api\/vehicles\/30\/\"],\"starships\":[],\"created\":\"2014-12-10T15:20:09.791000Z\",\"edited\":\"2014-12-20T21:17:50.315000Z\",\"url\":\"https:\/\/swapi.dev\/api\/people\/5\/\"},{\"name\":\"Owen Lars\",\"height\":\"178\",\"mass\":\"120\",\"hair_color\":\"brown, grey\",\"skin_color\":\"light\",\"eye_color\":\"blue\",\"birth_year\":\"52BBY\",\"gender\":\"male\",\"homeworld\":\"https:\/\/swapi.dev\/api\/planets\/1\/\",\"films\":[\"https:\/\/swapi.dev\/api\/films\/1\/\",\"https:\/\/swapi.dev\/api\/films\/5\/\",\"https:\/\/swapi.dev\/api\/films\/6\/\"],\"species\":[],\"vehicles\":[],\"starships\":[],\"created\":\"2014-12-10T15:52:14.024000Z\",\"edited\":\"2014-12-20T21:17:50.317000Z\",\"url\":\"https:\/\/swapi.dev\/api\/people\/6\/\"},{\"name\":\"Beru Whitesun lars\",\"height\":\"165\",\"mass\":\"75\",\"hair_color\":\"brown\",\"skin_color\":\"light\",\"eye_color\":\"blue\",\"birth_year\":\"47BBY\",\"gender\":\"female\",\"homeworld\":\"https:\/\/swapi.dev\/api\/planets\/1\/\",\"films\":[\"https:\/\/swapi.dev\/api\/films\/1\/\",\"https:\/\/swapi.dev\/api\/films\/5\/\",\"https:\/\/swapi.dev\/api\/films\/6\/\"],\"species\":[],\"vehicles\":[],\"starships\":[],\"created\":\"2014-12-10T15:53:41.121000Z\",\"edited\":\"2014-12-20T21:17:50.319000Z\",\"url\":\"https:\/\/swapi.dev\/api\/people\/7\/\"},{\"name\":\"R5-D4\",\"height\":\"97\",\"mass\":\"32\",\"hair_color\":\"n\/a\",\"skin_color\":\"white, red\",\"eye_color\":\"red\",\"birth_year\":\"unknown\",\"gender\":\"n\/a\",\"homeworld\":\"https:\/\/swapi.dev\/api\/planets\/1\/\",\"films\":[\"https:\/\/swapi.dev\/api\/films\/1\/\"],\"species\":[\"https:\/\/swapi.dev\/api\/species\/2\/\"],\"vehicles\":[],\"starships\":[],\"created\":\"2014-12-10T15:57:50.959000Z\",\"edited\":\"2014-12-20T21:17:50.321000Z\",\"url\":\"https:\/\/swapi.dev\/api\/people\/8\/\"},{\"name\":\"Biggs Darklighter\",\"height\":\"183\",\"mass\":\"84\",\"hair_color\":\"black\",\"skin_color\":\"light\",\"eye_color\":\"brown\",\"birth_year\":\"24BBY\",\"gender\":\"male\",\"homeworld\":\"https:\/\/swapi.dev\/api\/planets\/1\/\",\"films\":[\"https:\/\/swapi.dev\/api\/films\/1\/\"],\"species\":[],\"vehicles\":[],\"starships\":[\"https:\/\/swapi.dev\/api\/starships\/12\/\"],\"created\":\"2014-12-10T15:59:50.509000Z\",\"edited\":\"2014-12-20T21:17:50.323000Z\",\"url\":\"https:\/\/swapi.dev\/api\/people\/9\/\"},{\"name\":\"Obi-Wan Kenobi\",\"height\":\"182\",\"mass\":\"77\",\"hair_color\":\"auburn, white\",\"skin_color\":\"fair\",\"eye_color\":\"blue-gray\",\"birth_year\":\"57BBY\",\"gender\":\"male\",\"homeworld\":\"https:\/\/swapi.dev\/api\/planets\/20\/\",\"films\":[\"https:\/\/swapi.dev\/api\/films\/1\/\",\"https:\/\/swapi.dev\/api\/films\/2\/\",\"https:\/\/swapi.dev\/api\/films\/3\/\",\"https:\/\/swapi.dev\/api\/films\/4\/\",\"https:\/\/swapi.dev\/api\/films\/5\/\",\"https:\/\/swapi.dev\/api\/films\/6\/\"],\"species\":[],\"vehicles\":[\"https:\/\/swapi.dev\/api\/vehicles\/38\/\"],\"starships\":[\"https:\/\/swapi.dev\/api\/starships\/48\/\",\"https:\/\/swapi.dev\/api\/starships\/59\/\",\"https:\/\/swapi.dev\/api\/starships\/64\/\",\"https:\/\/swapi.dev\/api\/starships\/65\/\",\"https:\/\/swapi.dev\/api\/starships\/74\/\"],\"created\":\"2014-12-10T16:16:29.192000Z\",\"edited\":\"2014-12-20T21:17:50.325000Z\",\"url\":\"https:\/\/swapi.dev\/api\/people\/10\/\"}]}\nsrc\/test\/resources\/features\/swapi-get.feature:58\n"}],"line":62,"description":"","durationMillis":5295.3549,"failed":true,"error":"status code was: 200, expected: 404, response time in milliseconds: 4321, url: https:\/\/swapi.dev\/api\/people?myparam=page%3D999, response: \n{\"count\":82,\"next\":\"https:\/\/swapi.dev\/api\/people\/?page=2&myparam=page%3D999\",\"previous\":null,\"results\":[{\"name\":\"Luke Skywalker\",\"height\":\"172\",\"mass\":\"77\",\"hair_color\":\"blond\",\"skin_color\":\"fair\",\"eye_color\":\"blue\",\"birth_year\":\"19BBY\",\"gender\":\"male\",\"homeworld\":\"https:\/\/swapi.dev\/api\/planets\/1\/\",\"films\":[\"https:\/\/swapi.dev\/api\/films\/1\/\",\"https:\/\/swapi.dev\/api\/films\/2\/\",\"https:\/\/swapi.dev\/api\/films\/3\/\",\"https:\/\/swapi.dev\/api\/films\/6\/\"],\"species\":[],\"vehicles\":[\"https:\/\/swapi.dev\/api\/vehicles\/14\/\",\"https:\/\/swapi.dev\/api\/vehicles\/30\/\"],\"starships\":[\"https:\/\/swapi.dev\/api\/starships\/12\/\",\"https:\/\/swapi.dev\/api\/starships\/22\/\"],\"created\":\"2014-12-09T13:50:51.644000Z\",\"edited\":\"2014-12-20T21:17:56.891000Z\",\"url\":\"https:\/\/swapi.dev\/api\/people\/1\/\"},{\"name\":\"C-3PO\",\"height\":\"167\",\"mass\":\"75\",\"hair_color\":\"n\/a\",\"skin_color\":\"gold\",\"eye_color\":\"yellow\",\"birth_year\":\"112BBY\",\"gender\":\"n\/a\",\"homeworld\":\"https:\/\/swapi.dev\/api\/planets\/1\/\",\"films\":[\"https:\/\/swapi.dev\/api\/films\/1\/\",\"https:\/\/swapi.dev\/api\/films\/2\/\",\"https:\/\/swapi.dev\/api\/films\/3\/\",\"https:\/\/swapi.dev\/api\/films\/4\/\",\"https:\/\/swapi.dev\/api\/films\/5\/\",\"https:\/\/swapi.dev\/api\/films\/6\/\"],\"species\":[\"https:\/\/swapi.dev\/api\/species\/2\/\"],\"vehicles\":[],\"starships\":[],\"created\":\"2014-12-10T15:10:51.357000Z\",\"edited\":\"2014-12-20T21:17:50.309000Z\",\"url\":\"https:\/\/swapi.dev\/api\/people\/2\/\"},{\"name\":\"R2-D2\",\"height\":\"96\",\"mass\":\"32\",\"hair_color\":\"n\/a\",\"skin_color\":\"white, blue\",\"eye_color\":\"red\",\"birth_year\":\"33BBY\",\"gender\":\"n\/a\",\"homeworld\":\"https:\/\/swapi.dev\/api\/planets\/8\/\",\"films\":[\"https:\/\/swapi.dev\/api\/films\/1\/\",\"https:\/\/swapi.dev\/api\/films\/2\/\",\"https:\/\/swapi.dev\/api\/films\/3\/\",\"https:\/\/swapi.dev\/api\/films\/4\/\",\"https:\/\/swapi.dev\/api\/films\/5\/\",\"https:\/\/swapi.dev\/api\/films\/6\/\"],\"species\":[\"https:\/\/swapi.dev\/api\/species\/2\/\"],\"vehicles\":[],\"starships\":[],\"created\":\"2014-12-10T15:11:50.376000Z\",\"edited\":\"2014-12-20T21:17:50.311000Z\",\"url\":\"https:\/\/swapi.dev\/api\/people\/3\/\"},{\"name\":\"Darth Vader\",\"height\":\"202\",\"mass\":\"136\",\"hair_color\":\"none\",\"skin_color\":\"white\",\"eye_color\":\"yellow\",\"birth_year\":\"41.9BBY\",\"gender\":\"male\",\"homeworld\":\"https:\/\/swapi.dev\/api\/planets\/1\/\",\"films\":[\"https:\/\/swapi.dev\/api\/films\/1\/\",\"https:\/\/swapi.dev\/api\/films\/2\/\",\"https:\/\/swapi.dev\/api\/films\/3\/\",\"https:\/\/swapi.dev\/api\/films\/6\/\"],\"species\":[],\"vehicles\":[],\"starships\":[\"https:\/\/swapi.dev\/api\/starships\/13\/\"],\"created\":\"2014-12-10T15:18:20.704000Z\",\"edited\":\"2014-12-20T21:17:50.313000Z\",\"url\":\"https:\/\/swapi.dev\/api\/people\/4\/\"},{\"name\":\"Leia Organa\",\"height\":\"150\",\"mass\":\"49\",\"hair_color\":\"brown\",\"skin_color\":\"light\",\"eye_color\":\"brown\",\"birth_year\":\"19BBY\",\"gender\":\"female\",\"homeworld\":\"https:\/\/swapi.dev\/api\/planets\/2\/\",\"films\":[\"https:\/\/swapi.dev\/api\/films\/1\/\",\"https:\/\/swapi.dev\/api\/films\/2\/\",\"https:\/\/swapi.dev\/api\/films\/3\/\",\"https:\/\/swapi.dev\/api\/films\/6\/\"],\"species\":[],\"vehicles\":[\"https:\/\/swapi.dev\/api\/vehicles\/30\/\"],\"starships\":[],\"created\":\"2014-12-10T15:20:09.791000Z\",\"edited\":\"2014-12-20T21:17:50.315000Z\",\"url\":\"https:\/\/swapi.dev\/api\/people\/5\/\"},{\"name\":\"Owen Lars\",\"height\":\"178\",\"mass\":\"120\",\"hair_color\":\"brown, grey\",\"skin_color\":\"light\",\"eye_color\":\"blue\",\"birth_year\":\"52BBY\",\"gender\":\"male\",\"homeworld\":\"https:\/\/swapi.dev\/api\/planets\/1\/\",\"films\":[\"https:\/\/swapi.dev\/api\/films\/1\/\",\"https:\/\/swapi.dev\/api\/films\/5\/\",\"https:\/\/swapi.dev\/api\/films\/6\/\"],\"species\":[],\"vehicles\":[],\"starships\":[],\"created\":\"2014-12-10T15:52:14.024000Z\",\"edited\":\"2014-12-20T21:17:50.317000Z\",\"url\":\"https:\/\/swapi.dev\/api\/people\/6\/\"},{\"name\":\"Beru Whitesun lars\",\"height\":\"165\",\"mass\":\"75\",\"hair_color\":\"brown\",\"skin_color\":\"light\",\"eye_color\":\"blue\",\"birth_year\":\"47BBY\",\"gender\":\"female\",\"homeworld\":\"https:\/\/swapi.dev\/api\/planets\/1\/\",\"films\":[\"https:\/\/swapi.dev\/api\/films\/1\/\",\"https:\/\/swapi.dev\/api\/films\/5\/\",\"https:\/\/swapi.dev\/api\/films\/6\/\"],\"species\":[],\"vehicles\":[],\"starships\":[],\"created\":\"2014-12-10T15:53:41.121000Z\",\"edited\":\"2014-12-20T21:17:50.319000Z\",\"url\":\"https:\/\/swapi.dev\/api\/people\/7\/\"},{\"name\":\"R5-D4\",\"height\":\"97\",\"mass\":\"32\",\"hair_color\":\"n\/a\",\"skin_color\":\"white, red\",\"eye_color\":\"red\",\"birth_year\":\"unknown\",\"gender\":\"n\/a\",\"homeworld\":\"https:\/\/swapi.dev\/api\/planets\/1\/\",\"films\":[\"https:\/\/swapi.dev\/api\/films\/1\/\"],\"species\":[\"https:\/\/swapi.dev\/api\/species\/2\/\"],\"vehicles\":[],\"starships\":[],\"created\":\"2014-12-10T15:57:50.959000Z\",\"edited\":\"2014-12-20T21:17:50.321000Z\",\"url\":\"https:\/\/swapi.dev\/api\/people\/8\/\"},{\"name\":\"Biggs Darklighter\",\"height\":\"183\",\"mass\":\"84\",\"hair_color\":\"black\",\"skin_color\":\"light\",\"eye_color\":\"brown\",\"birth_year\":\"24BBY\",\"gender\":\"male\",\"homeworld\":\"https:\/\/swapi.dev\/api\/planets\/1\/\",\"films\":[\"https:\/\/swapi.dev\/api\/films\/1\/\"],\"species\":[],\"vehicles\":[],\"starships\":[\"https:\/\/swapi.dev\/api\/starships\/12\/\"],\"created\":\"2014-12-10T15:59:50.509000Z\",\"edited\":\"2014-12-20T21:17:50.323000Z\",\"url\":\"https:\/\/swapi.dev\/api\/people\/9\/\"},{\"name\":\"Obi-Wan Kenobi\",\"height\":\"182\",\"mass\":\"77\",\"hair_color\":\"auburn, white\",\"skin_color\":\"fair\",\"eye_color\":\"blue-gray\",\"birth_year\":\"57BBY\",\"gender\":\"male\",\"homeworld\":\"https:\/\/swapi.dev\/api\/planets\/20\/\",\"films\":[\"https:\/\/swapi.dev\/api\/films\/1\/\",\"https:\/\/swapi.dev\/api\/films\/2\/\",\"https:\/\/swapi.dev\/api\/films\/3\/\",\"https:\/\/swapi.dev\/api\/films\/4\/\",\"https:\/\/swapi.dev\/api\/films\/5\/\",\"https:\/\/swapi.dev\/api\/films\/6\/\"],\"species\":[],\"vehicles\":[\"https:\/\/swapi.dev\/api\/vehicles\/38\/\"],\"starships\":[\"https:\/\/swapi.dev\/api\/starships\/48\/\",\"https:\/\/swapi.dev\/api\/starships\/59\/\",\"https:\/\/swapi.dev\/api\/starships\/64\/\",\"https:\/\/swapi.dev\/api\/starships\/65\/\",\"https:\/\/swapi.dev\/api\/starships\/74\/\"],\"created\":\"2014-12-10T16:16:29.192000Z\",\"edited\":\"2014-12-20T21:17:50.325000Z\",\"url\":\"https:\/\/swapi.dev\/api\/people\/10\/\"}]}\nsrc\/test\/resources\/features\/swapi-get.feature:58","executorName":"main","name":"Make a query with non-existing page","startTime":1689784243018,"refId":"[4.1:62]","endTime":1689784248350,"exampleData":{"path":"\/people\/","json":null},"exampleIndex":0}],"callDepth":0,"name":"Star Wars Api","description":"","resultDate":"2023-07-19 11:30:48 a. m.","durationMillis":5295.3549,"passedCount":0}